Removed Pin From Net: NetName=NetAND4_B Pin=bcd4-BI
Removed Pin From Net: NetName=NetAND4_A Pin=bcd4-DI
Removed Pin From Net: NetName=NetAND4_B Pin=L2-Q2A
Removed Pin From Net: NetName=NetAND4_A Pin=L2-Q4A
Added Pin To Net: NetName=NetAND4_A Pin=bcd4-BI
Added Pin To Net: NetName=NetAND4_B Pin=bcd4-DI
Added Pin To Net: NetName=NetAND4_A Pin=L2-Q2A
Added Pin To Net: NetName=NetAND4_B Pin=L2-Q4A
