Removed Pin From Net: NetName=+5 Pin=AND2-GND
Removed Pin From Net: NetName=GND Pin=AND2-VCC
Removed Pin From Net: NetName=+5 Pin=OR2-GND
Removed Pin From Net: NetName=GND Pin=OR2-VCC
Added Pin To Net: NetName=GND Pin=AND2-GND
Added Pin To Net: NetName=+5 Pin=AND2-VCC
Added Pin To Net: NetName=GND Pin=OR2-GND
Added Pin To Net: NetName=+5 Pin=OR2-VCC
