Removed Pin From Net: NetName=+5 Pin=C3-2
Change Component Footprint: Designator=C1 Old Footprint=0402C New Footprint=Kondensator SMD 100n
Change Component Footprint: Designator=C2 Old Footprint=0402C New Footprint=Kondensator SMD 100n
Change Component Footprint: Designator=C3 Old Footprint=0402C New Footprint=Kondensator SMD 100n
