PCAD Importer Log
Project : C1608X7R1H104KT.LibPkg

Section : D:\Pl Użytkownika\Muzyka\PCB_Project\mylibary\elements\C1608X7R1H104KT.lia
    Section : PCB Library - C1608X7R1H104KT.PcbLib
        Section : Load Messages
            Warning - 1 : Skipping Token C1608X7R1H104KT On Line 136
            Warning - 1 : Skipping Token attachedSymbol On Line 191
        EndSection

        Section : Import Messages
        EndSection
    EndSection

    Section : SCH Library - C1608X7R1H104KT.SchLib
        Section : Parsing Messages
            Warning - 1 : Skipping Token padStyleDef On Line 9
            Warning - 1 : Skipping Token multiLayer On Line 84
            Warning - 1 : Skipping Token layerContents On Line 88
            Warning - 1 : Skipping Token layerContents On Line 106
            Warning - 1 : Skipping Token layerContents On Line 124
            Warning - 1 : Skipping Token layerContents On Line 128
        EndSection

        Section : Generating SCH Library - C1608X7R1H104KT.SchLib
        EndSection
    EndSection
EndSection
